Missed opportunities of vaccination in Vietnam, 2014
…
Lets try an example:

nbdoses(ch, "^IM3|^HF13")

## # A tibble: 3,346 x 20
##    HF13B HF13D HF13H HF13H0 HF13I HF13M HF13P HF13PEN HF13V1 HF13V2  IM3B  IM3D  IM3H IM3H0  IM3I  IM3M  IM3P IM3PEN IM3V1 IM3V2
##    <int> <int> <int>  <int> <int> <int> <int>   <int>  <int>  <int> <int> <int> <int> <int> <int> <int> <int>  <int> <int> <int>
##  1     0     0     0      0     0     0     0       0      0      0     1     0     0     1     0     1     3      3     0     0
##  2     0     0     0      0     0     0     0       0      0      0     1     0     0     1     0     0     3      3     0     0
##  3     1     0     1      0     0     1     0       3      0      0     1     0     0     1     0     1     3      3     0     0
##  4     1     3     3      1     3     1     3       0      0      0     1     3     3     1     3     1     3      0     0     0
##  5     0     0     0      0     0     0     0       0      0      0     1     0     0     1     0     1     3      3     0     0
##  6     1     0     0      0     0     1     3       3      0      0     1     0     0     1     0     1     3      3     0     0
##  7     0     0     0      0     0     0     0       0      0      0     1     0     0     1     0     1     3      3     0     0
##  8     0     0     0      0     0     0     0       0      0      0     0     0     0     0     0     0     0      0     0     0
##  9     0     0     0      0     0     0     0       0      0      0     1     0     0     1     0     1     3      3     0     0
## 10     0     0     0      0     0     0     0       0      0      0     0     0     0     0     0     0     0      0     0     0
## #  with 3,336 more rows
…
Lets try it when replacing all inconsistencies by NAs:

ch %>%
  nbdoses("^IM3|^HF13") %>% 
  combine_series("^IM3|^HF13")

## # A tibble: 3,346 x 10
##        B     D     H    H0     I     M     P   PEN    V1    V2
##    <int> <int> <int> <int> <int> <int> <int> <int> <int> <int>
##  1    NA     0     0    NA     0    NA    NA    NA     0     0
##  2    NA     0     0    NA     0     0    NA    NA     0     0
##  3     1     0    NA    NA     0     1    NA     3     0     0
##  4     1     3     3     1     3     1     3     0     0     0
##  5    NA     0     0    NA     0    NA    NA    NA     0     0
##  6     1     0     0    NA     0     1     3     3     0     0
##  7    NA     0     0    NA     0    NA    NA    NA     0     0
##  8     0     0     0     0     0     0     0     0     0     0
##  9    NA     0     0    NA     0    NA    NA    NA     0     0
## 10     0     0     0     0     0     0     0     0     0     0
## #  with 3,336 more rows

Considering the minimal value in case of inconsistency:

ch %>%
  nbdoses("^IM3|^HF13") %>% 
  combine_series("^IM3|^HF13", FALSE)

## # A tibble: 3,346 x 10
##        B     D     H    H0     I     M     P   PEN    V1    V2
##    <int> <int> <int> <int> <int> <int> <int> <int> <int> <int>
##  1     0     0     0     0     0     0     0     0     0     0
##  2     0     0     0     0     0     0     0     0     0     0
##  3     1     0     0     0     0     1     0     3     0     0
##  4     1     3     3     1     3     1     3     0     0     0
##  5     0     0     0     0     0     0     0     0     0     0
##  6     1     0     0     0     0     1     3     3     0     0
##  7     0     0     0     0     0     0     0     0     0     0
##  8     0     0     0     0     0     0     0     0     0     0
##  9     0     0     0     0     0     0     0     0     0     0
## 10     0     0     0     0     0     0     0     0     0     0
## #  with 3,336 more rows

Considering the maximal value in case of inconsistency:

ch %>%
  nbdoses("^IM3|^HF13") %>% 
  combine_series("^IM3|^HF13", FALSE, FALSE)

## # A tibble: 3,346 x 10
##        B     D     H    H0     I     M     P   PEN    V1    V2
##    <int> <int> <int> <int> <int> <int> <int> <int> <int> <int>
##  1     1     0     0     1     0     1     3     3     0     0
##  2     1     0     0     1     0     0     3     3     0     0
##  3     1     0     1     1     0     1     3     3     0     0
##  4     1     3     3     1     3     1     3     0     0     0
##  5     1     0     0     1     0     1     3     3     0     0
##  6     1     0     0     1     0     1     3     3     0     0
##  7     1     0     0     1     0     1     3     3     0     0
##  8     0     0     0     0     0     0     0     0     0     0
##  9     1     0     0     1     0     1     3     3     0     0
## 10     0     0     0     0     0     0     0     0     0     0
## #  with 3,336 more rows
…
